quotes: “”〃״＂ˮײ᳓″ʺ˝‶‟˶
single quotes: ‘’՝ߴʹ｀՚ߵ＇ᛌיʾʼʽʻ‛’‘˴ˈˋˊ׳ᑊꞌ′‵᾽᾿΄´῾
em-dash: —ー―ㅡᅳ─一━－⼀㇐ꟷ
en-dash: ––‒‑➖‐⁃−Ⲻ﹘-˗
bullet: ･𐄁•・‧·᛫⸱ᐧ∙⋅
ellipses: …
trademark: ™
dagger: †
copyright: ©
registered: ®
cents: ¢
pound: £




